[gd_resource type="AnimatedTexture" load_steps=2 format=2]

[ext_resource path="res://characters/invisi/avatar/invisi_avatar.png" type="Texture" id=1]

[resource]
flags = 4
frame_0/texture = ExtResource( 1 )
