[gd_scene load_steps=129 format=2]

[ext_resource path="res://characters/krampus/nothing.png" type="Texture" id=1]
[ext_resource path="res://characters/krampus/talk/e/talk_e_082.png" type="Texture" id=2]
[ext_resource path="res://characters/krampus/talk/e/talk_e_084.png" type="Texture" id=3]
[ext_resource path="res://characters/krampus/talk/e/talk_e_083.png" type="Texture" id=4]
[ext_resource path="res://characters/krampus/talk/e/talk_e_085.png" type="Texture" id=5]
[ext_resource path="res://characters/krampus/talk/e/talk_e_051.png" type="Texture" id=6]
[ext_resource path="res://characters/krampus/talk/e/talk_e_050.png" type="Texture" id=7]
[ext_resource path="res://characters/krampus/talk/e/talk_e_012.png" type="Texture" id=8]
[ext_resource path="res://characters/krampus/talk/e/talk_e_005.png" type="Texture" id=9]
[ext_resource path="res://characters/krampus/talk/e/talk_e_006.png" type="Texture" id=10]
[ext_resource path="res://characters/krampus/talk/e/talk_e_004.png" type="Texture" id=11]
[ext_resource path="res://characters/krampus/talk/e/talk_e_003.png" type="Texture" id=12]
[ext_resource path="res://characters/krampus/talk/e/talk_e_002.png" type="Texture" id=13]
[ext_resource path="res://characters/krampus/talk/e/talk_e_001.png" type="Texture" id=14]
[ext_resource path="res://characters/krampus/talk/e/talk_e_000.png" type="Texture" id=15]
[ext_resource path="res://addons/escoria-core/game/core-scripts/resources/esc_animationresource.gd" type="Script" id=16]
[ext_resource path="res://addons/escoria-core/game/core-scripts/resources/esc_directionangle.gd" type="Script" id=17]
[ext_resource path="res://addons/escoria-core/game/core-scripts/esc_player.gd" type="Script" id=18]
[ext_resource path="res://addons/escoria-core/game/core-scripts/esc_location.gd" type="Script" id=19]
[ext_resource path="res://characters/krampus/talk/e/talk_e_025.png" type="Texture" id=20]
[ext_resource path="res://characters/krampus/talk/e/talk_e_022.png" type="Texture" id=21]
[ext_resource path="res://addons/escoria-core/game/core-scripts/resources/esc_animationname.gd" type="Script" id=22]
[ext_resource path="res://characters/krampus/talk/e/talk_e_024.png" type="Texture" id=23]
[ext_resource path="res://characters/krampus/talk/e/talk_e_023.png" type="Texture" id=24]
[ext_resource path="res://characters/krampus/talk/e/talk_e_040.png" type="Texture" id=25]
[ext_resource path="res://characters/krampus/talk/e/talk_e_039.png" type="Texture" id=26]
[ext_resource path="res://characters/krampus/talk/e/talk_e_041.png" type="Texture" id=27]
[ext_resource path="res://characters/krampus/talk/e/talk_e_043.png" type="Texture" id=28]
[ext_resource path="res://characters/krampus/talk/e/talk_e_042.png" type="Texture" id=29]
[ext_resource path="res://characters/krampus/talk/e/talk_e_037.png" type="Texture" id=30]
[ext_resource path="res://characters/krampus/talk/e/talk_e_038.png" type="Texture" id=31]
[ext_resource path="res://characters/krampus/talk/e/talk_e_057.png" type="Texture" id=32]
[ext_resource path="res://characters/krampus/talk/e/talk_e_058.png" type="Texture" id=33]
[ext_resource path="res://characters/krampus/talk/e/talk_e_059.png" type="Texture" id=34]
[ext_resource path="res://characters/krampus/talk/e/talk_e_076.png" type="Texture" id=35]
[ext_resource path="res://characters/krampus/talk/e/talk_e_075.png" type="Texture" id=36]
[ext_resource path="res://characters/krampus/talk/e/talk_e_077.png" type="Texture" id=37]
[ext_resource path="res://characters/krampus/talk/e/talk_e_029.png" type="Texture" id=38]
[ext_resource path="res://characters/krampus/talk/e/talk_e_030.png" type="Texture" id=39]
[ext_resource path="res://characters/krampus/talk/e/talk_e_066.png" type="Texture" id=40]
[ext_resource path="res://characters/krampus/talk/e/talk_e_067.png" type="Texture" id=41]
[ext_resource path="res://characters/krampus/talk/e/talk_e_009.png" type="Texture" id=42]
[ext_resource path="res://characters/krampus/talk/e/talk_e_015.png" type="Texture" id=43]
[ext_resource path="res://characters/krampus/talk/e/talk_e_016.png" type="Texture" id=44]
[ext_resource path="res://characters/krampus/talk/e/talk_e_032.png" type="Texture" id=45]
[ext_resource path="res://characters/krampus/talk/e/talk_e_031.png" type="Texture" id=46]
[ext_resource path="res://characters/krampus/talk/e/talk_e_033.png" type="Texture" id=47]
[ext_resource path="res://characters/krampus/talk/e/talk_e_027.png" type="Texture" id=48]
[ext_resource path="res://characters/krampus/talk/e/talk_e_026.png" type="Texture" id=49]
[ext_resource path="res://characters/krampus/talk/e/talk_e_028.png" type="Texture" id=50]
[ext_resource path="res://characters/krampus/talk/e/talk_e_045.png" type="Texture" id=51]
[ext_resource path="res://characters/krampus/talk/e/talk_e_044.png" type="Texture" id=52]
[ext_resource path="res://characters/krampus/talk/e/talk_e_055.png" type="Texture" id=53]
[ext_resource path="res://characters/krampus/talk/e/talk_e_056.png" type="Texture" id=54]
[ext_resource path="res://characters/krampus/talk/e/talk_e_068.png" type="Texture" id=55]
[ext_resource path="res://characters/krampus/talk/e/talk_e_069.png" type="Texture" id=56]
[ext_resource path="res://characters/krampus/talk/e/talk_e_071.png" type="Texture" id=57]
[ext_resource path="res://characters/krampus/talk/e/talk_e_070.png" type="Texture" id=58]
[ext_resource path="res://characters/krampus/talk/e/talk_e_073.png" type="Texture" id=59]
[ext_resource path="res://characters/krampus/talk/e/talk_e_072.png" type="Texture" id=60]
[ext_resource path="res://characters/krampus/talk/e/talk_e_074.png" type="Texture" id=61]
[ext_resource path="res://characters/krampus/talk/e/talk_e_061.png" type="Texture" id=62]
[ext_resource path="res://characters/krampus/talk/e/talk_e_060.png" type="Texture" id=63]
[ext_resource path="res://characters/krampus/talk/e/talk_e_062.png" type="Texture" id=64]
[ext_resource path="res://characters/krampus/talk/e/talk_e_011.png" type="Texture" id=65]
[ext_resource path="res://characters/krampus/talk/e/talk_e_013.png" type="Texture" id=66]
[ext_resource path="res://characters/krampus/talk/e/talk_e_014.png" type="Texture" id=67]
[ext_resource path="res://characters/krampus/talk/e/talk_e_017.png" type="Texture" id=68]
[ext_resource path="res://characters/krampus/talk/e/talk_e_018.png" type="Texture" id=69]
[ext_resource path="res://characters/krampus/talk/e/talk_e_078.png" type="Texture" id=70]
[ext_resource path="res://characters/krampus/talk/e/talk_e_079.png" type="Texture" id=71]
[ext_resource path="res://characters/krampus/talk/e/talk_e_080.png" type="Texture" id=72]
[ext_resource path="res://characters/krampus/talk/e/talk_e_081.png" type="Texture" id=73]
[ext_resource path="res://characters/krampus/talk/e/talk_e_034.png" type="Texture" id=74]
[ext_resource path="res://characters/krampus/talk/e/talk_e_036.png" type="Texture" id=75]
[ext_resource path="res://characters/krampus/talk/e/talk_e_035.png" type="Texture" id=76]
[ext_resource path="res://characters/krampus/talk/e/talk_e_008.png" type="Texture" id=77]
[ext_resource path="res://characters/krampus/talk/e/talk_e_010.png" type="Texture" id=78]
[ext_resource path="res://characters/krampus/talk/e/talk_e_052.png" type="Texture" id=79]
[ext_resource path="res://characters/krampus/talk/e/talk_e_053.png" type="Texture" id=80]
[ext_resource path="res://characters/krampus/talk/e/talk_e_054.png" type="Texture" id=81]
[ext_resource path="res://characters/krampus/talk/e/talk_e_019.png" type="Texture" id=82]
[ext_resource path="res://characters/krampus/talk/e/talk_e_021.png" type="Texture" id=83]
[ext_resource path="res://characters/krampus/talk/e/talk_e_020.png" type="Texture" id=84]
[ext_resource path="res://characters/krampus/talk/e/talk_e_064.png" type="Texture" id=85]
[ext_resource path="res://characters/krampus/talk/e/talk_e_063.png" type="Texture" id=86]
[ext_resource path="res://characters/krampus/talk/e/talk_e_065.png" type="Texture" id=87]
[ext_resource path="res://characters/krampus/talk/e/talk_e_007.png" type="Texture" id=88]
[ext_resource path="res://characters/krampus/talk/e/talk_e_046.png" type="Texture" id=89]
[ext_resource path="res://characters/krampus/talk/e/talk_e_047.png" type="Texture" id=90]
[ext_resource path="res://characters/krampus/talk/e/talk_e_048.png" type="Texture" id=91]
[ext_resource path="res://characters/krampus/talk/e/talk_e_049.png" type="Texture" id=92]
[ext_resource path="res://avatars/krampus.tres" type="Texture" id=93]

[sub_resource type="Resource" id=3]
script = ExtResource( 17 )
angle_start = 340
angle_size = 40

[sub_resource type="Resource" id=4]
script = ExtResource( 17 )
angle_start = 20
angle_size = 50

[sub_resource type="Resource" id=5]
script = ExtResource( 17 )
angle_start = 70
angle_size = 40

[sub_resource type="Resource" id=6]
script = ExtResource( 17 )
angle_start = 110
angle_size = 50

[sub_resource type="Resource" id=7]
script = ExtResource( 17 )
angle_start = 160
angle_size = 40

[sub_resource type="Resource" id=8]
script = ExtResource( 17 )
angle_start = 200
angle_size = 50

[sub_resource type="Resource" id=9]
script = ExtResource( 17 )
angle_start = 250
angle_size = 40

[sub_resource type="Resource" id=10]
script = ExtResource( 17 )
angle_start = 290
angle_size = 50

[sub_resource type="Resource" id=36]
script = ExtResource( 22 )
animation = "walk_n"
mirrored = false

[sub_resource type="Resource" id=37]
script = ExtResource( 22 )
animation = "walk_ne"
mirrored = false

[sub_resource type="Resource" id=38]
script = ExtResource( 22 )
animation = "walk_e"
mirrored = false

[sub_resource type="Resource" id=39]
script = ExtResource( 22 )
animation = "walk_se"
mirrored = false

[sub_resource type="Resource" id=40]
script = ExtResource( 22 )
animation = "walk_s"
mirrored = false

[sub_resource type="Resource" id=41]
script = ExtResource( 22 )
animation = "walk_sw"
mirrored = false

[sub_resource type="Resource" id=42]
script = ExtResource( 22 )
animation = "walk_w"
mirrored = false

[sub_resource type="Resource" id=43]
script = ExtResource( 22 )
animation = "walk_nw"
mirrored = false

[sub_resource type="Resource" id=44]
script = ExtResource( 22 )
animation = "idle_n"
mirrored = false

[sub_resource type="Resource" id=45]
script = ExtResource( 22 )
animation = "idle_ne"
mirrored = false

[sub_resource type="Resource" id=46]
script = ExtResource( 22 )
animation = "idle_e"
mirrored = false

[sub_resource type="Resource" id=47]
script = ExtResource( 22 )
animation = "idle_se"
mirrored = false

[sub_resource type="Resource" id=48]
script = ExtResource( 22 )
animation = "idle_s"
mirrored = false

[sub_resource type="Resource" id=49]
script = ExtResource( 22 )
animation = "idle_sw"
mirrored = false

[sub_resource type="Resource" id=50]
script = ExtResource( 22 )
animation = "idle_w"
mirrored = false

[sub_resource type="Resource" id=51]
script = ExtResource( 22 )
animation = "idle_nw"
mirrored = false

[sub_resource type="Resource" id=52]
script = ExtResource( 22 )
animation = "talk_n"
mirrored = false

[sub_resource type="Resource" id=53]
script = ExtResource( 22 )
animation = "talk_ne"
mirrored = false

[sub_resource type="Resource" id=54]
script = ExtResource( 22 )
animation = "talk_e"
mirrored = false

[sub_resource type="Resource" id=55]
script = ExtResource( 22 )
animation = "talk_se"
mirrored = false

[sub_resource type="Resource" id=56]
script = ExtResource( 22 )
animation = "talk_s"
mirrored = false

[sub_resource type="Resource" id=57]
script = ExtResource( 22 )
animation = "talk_sw"
mirrored = false

[sub_resource type="Resource" id=58]
script = ExtResource( 22 )
animation = "talk_w"
mirrored = false

[sub_resource type="Resource" id=59]
script = ExtResource( 22 )
animation = "talk_nw"
mirrored = false

[sub_resource type="Resource" id=35]
script = ExtResource( 16 )
dir_angles = [ SubResource( 3 ), SubResource( 4 ), SubResource( 5 ), SubResource( 6 ), SubResource( 7 ), SubResource( 8 ), SubResource( 9 ), SubResource( 10 ) ]
directions = [ SubResource( 36 ), SubResource( 37 ), SubResource( 38 ), SubResource( 39 ), SubResource( 40 ), SubResource( 41 ), SubResource( 42 ), SubResource( 43 ) ]
idles = [ SubResource( 44 ), SubResource( 45 ), SubResource( 46 ), SubResource( 47 ), SubResource( 48 ), SubResource( 49 ), SubResource( 50 ), SubResource( 51 ) ]
speaks = [ SubResource( 52 ), SubResource( 53 ), SubResource( 54 ), SubResource( 55 ), SubResource( 56 ), SubResource( 57 ), SubResource( 58 ), SubResource( 59 ) ]

[sub_resource type="SpriteFrames" id=1]
animations = [ {
"frames": [ ExtResource( 1 ) ],
"loop": true,
"name": "idle_e",
"speed": 5.0
}, {
"frames": [ ExtResource( 1 ) ],
"loop": true,
"name": "idle_n",
"speed": 5.0
}, {
"frames": [ ExtResource( 1 ) ],
"loop": true,
"name": "idle_ne",
"speed": 5.0
}, {
"frames": [ ExtResource( 1 ) ],
"loop": true,
"name": "idle_nw",
"speed": 5.0
}, {
"frames": [ ExtResource( 1 ) ],
"loop": true,
"name": "idle_s",
"speed": 5.0
}, {
"frames": [ ExtResource( 1 ) ],
"loop": true,
"name": "idle_se",
"speed": 5.0
}, {
"frames": [ ExtResource( 1 ) ],
"loop": true,
"name": "idle_sw",
"speed": 5.0
}, {
"frames": [ ExtResource( 1 ) ],
"loop": true,
"name": "idle_w",
"speed": 5.0
}, {
"frames": [ ExtResource( 15 ), ExtResource( 14 ), ExtResource( 13 ), ExtResource( 12 ), ExtResource( 11 ), ExtResource( 9 ), ExtResource( 10 ), ExtResource( 88 ), ExtResource( 77 ), ExtResource( 42 ), ExtResource( 78 ), ExtResource( 65 ), ExtResource( 8 ), ExtResource( 66 ), ExtResource( 67 ), ExtResource( 43 ), ExtResource( 44 ), ExtResource( 68 ), ExtResource( 69 ), ExtResource( 82 ), ExtResource( 84 ), ExtResource( 83 ), ExtResource( 21 ), ExtResource( 24 ), ExtResource( 23 ), ExtResource( 20 ), ExtResource( 49 ), ExtResource( 48 ), ExtResource( 50 ), ExtResource( 38 ), ExtResource( 39 ), ExtResource( 46 ), ExtResource( 45 ), ExtResource( 47 ), ExtResource( 74 ), ExtResource( 76 ), ExtResource( 75 ), ExtResource( 30 ), ExtResource( 31 ), ExtResource( 26 ), ExtResource( 25 ), ExtResource( 27 ), ExtResource( 29 ), ExtResource( 28 ), ExtResource( 52 ), ExtResource( 51 ), ExtResource( 89 ), ExtResource( 90 ), ExtResource( 91 ), ExtResource( 92 ), ExtResource( 7 ), ExtResource( 6 ), ExtResource( 79 ), ExtResource( 80 ), ExtResource( 81 ), ExtResource( 53 ), ExtResource( 54 ), ExtResource( 32 ), ExtResource( 33 ), ExtResource( 34 ), ExtResource( 63 ), ExtResource( 62 ), ExtResource( 64 ), ExtResource( 86 ), ExtResource( 85 ), ExtResource( 87 ), ExtResource( 40 ), ExtResource( 41 ), ExtResource( 55 ), ExtResource( 56 ), ExtResource( 58 ), ExtResource( 57 ), ExtResource( 60 ), ExtResource( 59 ), ExtResource( 61 ), ExtResource( 36 ), ExtResource( 35 ), ExtResource( 37 ), ExtResource( 70 ), ExtResource( 71 ), ExtResource( 72 ), ExtResource( 73 ), ExtResource( 2 ), ExtResource( 4 ), ExtResource( 3 ), ExtResource( 5 ) ],
"loop": true,
"name": "talk_e",
"speed": 30.0
}, {
"frames": [ ExtResource( 15 ), ExtResource( 14 ), ExtResource( 13 ), ExtResource( 12 ), ExtResource( 11 ), ExtResource( 9 ), ExtResource( 10 ), ExtResource( 88 ), ExtResource( 77 ), ExtResource( 42 ), ExtResource( 78 ), ExtResource( 65 ), ExtResource( 8 ), ExtResource( 66 ), ExtResource( 67 ), ExtResource( 43 ), ExtResource( 44 ), ExtResource( 68 ), ExtResource( 69 ), ExtResource( 82 ), ExtResource( 84 ), ExtResource( 83 ), ExtResource( 21 ), ExtResource( 24 ), ExtResource( 23 ), ExtResource( 20 ), ExtResource( 49 ), ExtResource( 48 ), ExtResource( 50 ), ExtResource( 38 ), ExtResource( 39 ), ExtResource( 46 ), ExtResource( 45 ), ExtResource( 47 ), ExtResource( 74 ), ExtResource( 76 ), ExtResource( 75 ), ExtResource( 30 ), ExtResource( 31 ), ExtResource( 26 ), ExtResource( 25 ), ExtResource( 27 ), ExtResource( 29 ), ExtResource( 28 ), ExtResource( 52 ), ExtResource( 51 ), ExtResource( 89 ), ExtResource( 90 ), ExtResource( 91 ), ExtResource( 92 ), ExtResource( 7 ), ExtResource( 6 ), ExtResource( 79 ), ExtResource( 80 ), ExtResource( 81 ), ExtResource( 53 ), ExtResource( 54 ), ExtResource( 32 ), ExtResource( 33 ), ExtResource( 34 ), ExtResource( 63 ), ExtResource( 62 ), ExtResource( 64 ), ExtResource( 86 ), ExtResource( 85 ), ExtResource( 87 ), ExtResource( 40 ), ExtResource( 41 ), ExtResource( 55 ), ExtResource( 56 ), ExtResource( 58 ), ExtResource( 57 ), ExtResource( 60 ), ExtResource( 59 ), ExtResource( 61 ), ExtResource( 36 ), ExtResource( 35 ), ExtResource( 37 ), ExtResource( 70 ), ExtResource( 71 ), ExtResource( 72 ), ExtResource( 73 ), ExtResource( 2 ), ExtResource( 4 ), ExtResource( 3 ), ExtResource( 5 ) ],
"loop": true,
"name": "talk_n",
"speed": 30.0
}, {
"frames": [ ExtResource( 15 ), ExtResource( 14 ), ExtResource( 13 ), ExtResource( 12 ), ExtResource( 11 ), ExtResource( 9 ), ExtResource( 10 ), ExtResource( 88 ), ExtResource( 77 ), ExtResource( 42 ), ExtResource( 78 ), ExtResource( 65 ), ExtResource( 8 ), ExtResource( 66 ), ExtResource( 67 ), ExtResource( 43 ), ExtResource( 44 ), ExtResource( 68 ), ExtResource( 69 ), ExtResource( 82 ), ExtResource( 84 ), ExtResource( 83 ), ExtResource( 21 ), ExtResource( 24 ), ExtResource( 23 ), ExtResource( 20 ), ExtResource( 49 ), ExtResource( 48 ), ExtResource( 50 ), ExtResource( 38 ), ExtResource( 39 ), ExtResource( 46 ), ExtResource( 45 ), ExtResource( 47 ), ExtResource( 74 ), ExtResource( 76 ), ExtResource( 75 ), ExtResource( 30 ), ExtResource( 31 ), ExtResource( 26 ), ExtResource( 25 ), ExtResource( 27 ), ExtResource( 29 ), ExtResource( 28 ), ExtResource( 52 ), ExtResource( 51 ), ExtResource( 89 ), ExtResource( 90 ), ExtResource( 91 ), ExtResource( 92 ), ExtResource( 7 ), ExtResource( 6 ), ExtResource( 79 ), ExtResource( 80 ), ExtResource( 81 ), ExtResource( 53 ), ExtResource( 54 ), ExtResource( 32 ), ExtResource( 33 ), ExtResource( 34 ), ExtResource( 63 ), ExtResource( 62 ), ExtResource( 64 ), ExtResource( 86 ), ExtResource( 85 ), ExtResource( 87 ), ExtResource( 40 ), ExtResource( 41 ), ExtResource( 55 ), ExtResource( 56 ), ExtResource( 58 ), ExtResource( 57 ), ExtResource( 60 ), ExtResource( 59 ), ExtResource( 61 ), ExtResource( 36 ), ExtResource( 35 ), ExtResource( 37 ), ExtResource( 70 ), ExtResource( 71 ), ExtResource( 72 ), ExtResource( 73 ), ExtResource( 2 ), ExtResource( 4 ), ExtResource( 3 ), ExtResource( 5 ) ],
"loop": true,
"name": "talk_ne",
"speed": 30.0
}, {
"frames": [ ExtResource( 15 ), ExtResource( 14 ), ExtResource( 13 ), ExtResource( 12 ), ExtResource( 11 ), ExtResource( 9 ), ExtResource( 10 ), ExtResource( 88 ), ExtResource( 77 ), ExtResource( 42 ), ExtResource( 78 ), ExtResource( 65 ), ExtResource( 8 ), ExtResource( 66 ), ExtResource( 67 ), ExtResource( 43 ), ExtResource( 44 ), ExtResource( 68 ), ExtResource( 69 ), ExtResource( 82 ), ExtResource( 84 ), ExtResource( 83 ), ExtResource( 21 ), ExtResource( 24 ), ExtResource( 23 ), ExtResource( 20 ), ExtResource( 49 ), ExtResource( 48 ), ExtResource( 50 ), ExtResource( 38 ), ExtResource( 39 ), ExtResource( 46 ), ExtResource( 45 ), ExtResource( 47 ), ExtResource( 74 ), ExtResource( 76 ), ExtResource( 75 ), ExtResource( 30 ), ExtResource( 31 ), ExtResource( 26 ), ExtResource( 25 ), ExtResource( 27 ), ExtResource( 29 ), ExtResource( 28 ), ExtResource( 52 ), ExtResource( 51 ), ExtResource( 89 ), ExtResource( 90 ), ExtResource( 91 ), ExtResource( 92 ), ExtResource( 7 ), ExtResource( 6 ), ExtResource( 79 ), ExtResource( 80 ), ExtResource( 81 ), ExtResource( 53 ), ExtResource( 54 ), ExtResource( 32 ), ExtResource( 33 ), ExtResource( 34 ), ExtResource( 63 ), ExtResource( 62 ), ExtResource( 64 ), ExtResource( 86 ), ExtResource( 85 ), ExtResource( 87 ), ExtResource( 40 ), ExtResource( 41 ), ExtResource( 55 ), ExtResource( 56 ), ExtResource( 58 ), ExtResource( 57 ), ExtResource( 60 ), ExtResource( 59 ), ExtResource( 61 ), ExtResource( 36 ), ExtResource( 35 ), ExtResource( 37 ), ExtResource( 70 ), ExtResource( 71 ), ExtResource( 72 ), ExtResource( 73 ), ExtResource( 2 ), ExtResource( 4 ), ExtResource( 3 ), ExtResource( 5 ) ],
"loop": true,
"name": "talk_nw",
"speed": 30.0
}, {
"frames": [ ExtResource( 15 ), ExtResource( 14 ), ExtResource( 13 ), ExtResource( 12 ), ExtResource( 11 ), ExtResource( 9 ), ExtResource( 10 ), ExtResource( 88 ), ExtResource( 77 ), ExtResource( 42 ), ExtResource( 78 ), ExtResource( 65 ), ExtResource( 8 ), ExtResource( 66 ), ExtResource( 67 ), ExtResource( 43 ), ExtResource( 44 ), ExtResource( 68 ), ExtResource( 69 ), ExtResource( 82 ), ExtResource( 84 ), ExtResource( 83 ), ExtResource( 21 ), ExtResource( 24 ), ExtResource( 23 ), ExtResource( 20 ), ExtResource( 49 ), ExtResource( 48 ), ExtResource( 50 ), ExtResource( 38 ), ExtResource( 39 ), ExtResource( 46 ), ExtResource( 45 ), ExtResource( 47 ), ExtResource( 74 ), ExtResource( 76 ), ExtResource( 75 ), ExtResource( 30 ), ExtResource( 31 ), ExtResource( 26 ), ExtResource( 25 ), ExtResource( 27 ), ExtResource( 29 ), ExtResource( 28 ), ExtResource( 52 ), ExtResource( 51 ), ExtResource( 89 ), ExtResource( 90 ), ExtResource( 91 ), ExtResource( 92 ), ExtResource( 7 ), ExtResource( 6 ), ExtResource( 79 ), ExtResource( 80 ), ExtResource( 81 ), ExtResource( 53 ), ExtResource( 54 ), ExtResource( 32 ), ExtResource( 33 ), ExtResource( 34 ), ExtResource( 63 ), ExtResource( 62 ), ExtResource( 64 ), ExtResource( 86 ), ExtResource( 85 ), ExtResource( 87 ), ExtResource( 40 ), ExtResource( 41 ), ExtResource( 55 ), ExtResource( 56 ), ExtResource( 58 ), ExtResource( 57 ), ExtResource( 60 ), ExtResource( 59 ), ExtResource( 61 ), ExtResource( 36 ), ExtResource( 35 ), ExtResource( 37 ), ExtResource( 70 ), ExtResource( 71 ), ExtResource( 72 ), ExtResource( 73 ), ExtResource( 2 ), ExtResource( 4 ), ExtResource( 3 ), ExtResource( 5 ) ],
"loop": true,
"name": "talk_s",
"speed": 30.0
}, {
"frames": [ ExtResource( 15 ), ExtResource( 14 ), ExtResource( 13 ), ExtResource( 12 ), ExtResource( 11 ), ExtResource( 9 ), ExtResource( 10 ), ExtResource( 88 ), ExtResource( 77 ), ExtResource( 42 ), ExtResource( 78 ), ExtResource( 65 ), ExtResource( 8 ), ExtResource( 66 ), ExtResource( 67 ), ExtResource( 43 ), ExtResource( 44 ), ExtResource( 68 ), ExtResource( 69 ), ExtResource( 82 ), ExtResource( 84 ), ExtResource( 83 ), ExtResource( 21 ), ExtResource( 24 ), ExtResource( 23 ), ExtResource( 20 ), ExtResource( 49 ), ExtResource( 48 ), ExtResource( 50 ), ExtResource( 38 ), ExtResource( 39 ), ExtResource( 46 ), ExtResource( 45 ), ExtResource( 47 ), ExtResource( 74 ), ExtResource( 76 ), ExtResource( 75 ), ExtResource( 30 ), ExtResource( 31 ), ExtResource( 26 ), ExtResource( 25 ), ExtResource( 27 ), ExtResource( 29 ), ExtResource( 28 ), ExtResource( 52 ), ExtResource( 51 ), ExtResource( 89 ), ExtResource( 90 ), ExtResource( 91 ), ExtResource( 92 ), ExtResource( 7 ), ExtResource( 6 ), ExtResource( 79 ), ExtResource( 80 ), ExtResource( 81 ), ExtResource( 53 ), ExtResource( 54 ), ExtResource( 32 ), ExtResource( 33 ), ExtResource( 34 ), ExtResource( 63 ), ExtResource( 62 ), ExtResource( 64 ), ExtResource( 86 ), ExtResource( 85 ), ExtResource( 87 ), ExtResource( 40 ), ExtResource( 41 ), ExtResource( 55 ), ExtResource( 56 ), ExtResource( 58 ), ExtResource( 57 ), ExtResource( 60 ), ExtResource( 59 ), ExtResource( 61 ), ExtResource( 36 ), ExtResource( 35 ), ExtResource( 37 ), ExtResource( 70 ), ExtResource( 71 ), ExtResource( 72 ), ExtResource( 73 ), ExtResource( 2 ), ExtResource( 4 ), ExtResource( 3 ), ExtResource( 5 ) ],
"loop": true,
"name": "talk_se",
"speed": 30.0
}, {
"frames": [ ExtResource( 15 ), ExtResource( 14 ), ExtResource( 13 ), ExtResource( 12 ), ExtResource( 11 ), ExtResource( 9 ), ExtResource( 10 ), ExtResource( 88 ), ExtResource( 77 ), ExtResource( 42 ), ExtResource( 78 ), ExtResource( 65 ), ExtResource( 8 ), ExtResource( 66 ), ExtResource( 67 ), ExtResource( 43 ), ExtResource( 44 ), ExtResource( 68 ), ExtResource( 69 ), ExtResource( 82 ), ExtResource( 84 ), ExtResource( 83 ), ExtResource( 21 ), ExtResource( 24 ), ExtResource( 23 ), ExtResource( 20 ), ExtResource( 49 ), ExtResource( 48 ), ExtResource( 50 ), ExtResource( 38 ), ExtResource( 39 ), ExtResource( 46 ), ExtResource( 45 ), ExtResource( 47 ), ExtResource( 74 ), ExtResource( 76 ), ExtResource( 75 ), ExtResource( 30 ), ExtResource( 31 ), ExtResource( 26 ), ExtResource( 25 ), ExtResource( 27 ), ExtResource( 29 ), ExtResource( 28 ), ExtResource( 52 ), ExtResource( 51 ), ExtResource( 89 ), ExtResource( 90 ), ExtResource( 91 ), ExtResource( 92 ), ExtResource( 7 ), ExtResource( 6 ), ExtResource( 79 ), ExtResource( 80 ), ExtResource( 81 ), ExtResource( 53 ), ExtResource( 54 ), ExtResource( 32 ), ExtResource( 33 ), ExtResource( 34 ), ExtResource( 63 ), ExtResource( 62 ), ExtResource( 64 ), ExtResource( 86 ), ExtResource( 85 ), ExtResource( 87 ), ExtResource( 40 ), ExtResource( 41 ), ExtResource( 55 ), ExtResource( 56 ), ExtResource( 58 ), ExtResource( 57 ), ExtResource( 60 ), ExtResource( 59 ), ExtResource( 61 ), ExtResource( 36 ), ExtResource( 35 ), ExtResource( 37 ), ExtResource( 70 ), ExtResource( 71 ), ExtResource( 72 ), ExtResource( 73 ), ExtResource( 2 ), ExtResource( 4 ), ExtResource( 3 ), ExtResource( 5 ) ],
"loop": true,
"name": "talk_sw",
"speed": 30.0
}, {
"frames": [ ExtResource( 15 ), ExtResource( 14 ), ExtResource( 13 ), ExtResource( 12 ), ExtResource( 11 ), ExtResource( 9 ), ExtResource( 10 ), ExtResource( 88 ), ExtResource( 77 ), ExtResource( 42 ), ExtResource( 78 ), ExtResource( 65 ), ExtResource( 8 ), ExtResource( 66 ), ExtResource( 67 ), ExtResource( 43 ), ExtResource( 44 ), ExtResource( 68 ), ExtResource( 69 ), ExtResource( 82 ), ExtResource( 84 ), ExtResource( 83 ), ExtResource( 21 ), ExtResource( 24 ), ExtResource( 23 ), ExtResource( 20 ), ExtResource( 49 ), ExtResource( 48 ), ExtResource( 50 ), ExtResource( 38 ), ExtResource( 39 ), ExtResource( 46 ), ExtResource( 45 ), ExtResource( 47 ), ExtResource( 74 ), ExtResource( 76 ), ExtResource( 75 ), ExtResource( 30 ), ExtResource( 31 ), ExtResource( 26 ), ExtResource( 25 ), ExtResource( 27 ), ExtResource( 29 ), ExtResource( 28 ), ExtResource( 52 ), ExtResource( 51 ), ExtResource( 89 ), ExtResource( 90 ), ExtResource( 91 ), ExtResource( 92 ), ExtResource( 7 ), ExtResource( 6 ), ExtResource( 79 ), ExtResource( 80 ), ExtResource( 81 ), ExtResource( 53 ), ExtResource( 54 ), ExtResource( 32 ), ExtResource( 33 ), ExtResource( 34 ), ExtResource( 63 ), ExtResource( 62 ), ExtResource( 64 ), ExtResource( 86 ), ExtResource( 85 ), ExtResource( 87 ), ExtResource( 40 ), ExtResource( 41 ), ExtResource( 55 ), ExtResource( 56 ), ExtResource( 58 ), ExtResource( 57 ), ExtResource( 60 ), ExtResource( 59 ), ExtResource( 61 ), ExtResource( 36 ), ExtResource( 35 ), ExtResource( 37 ), ExtResource( 70 ), ExtResource( 71 ), ExtResource( 72 ), ExtResource( 73 ), ExtResource( 2 ), ExtResource( 4 ), ExtResource( 3 ), ExtResource( 5 ) ],
"loop": true,
"name": "talk_w",
"speed": 30.0
}, {
"frames": [ ExtResource( 1 ) ],
"loop": true,
"name": "walk_e",
"speed": 5.0
}, {
"frames": [ ExtResource( 1 ) ],
"loop": true,
"name": "walk_n",
"speed": 5.0
}, {
"frames": [ ExtResource( 1 ) ],
"loop": true,
"name": "walk_ne",
"speed": 5.0
}, {
"frames": [ ExtResource( 1 ) ],
"loop": true,
"name": "walk_nw",
"speed": 5.0
}, {
"frames": [ ExtResource( 1 ) ],
"loop": true,
"name": "walk_s",
"speed": 5.0
}, {
"frames": [ ExtResource( 1 ) ],
"loop": true,
"name": "walk_se",
"speed": 5.0
}, {
"frames": [ ExtResource( 1 ) ],
"loop": true,
"name": "walk_sw",
"speed": 5.0
}, {
"frames": [ ExtResource( 1 ) ],
"loop": true,
"name": "walk_w",
"speed": 5.0
} ]

[sub_resource type="CapsuleShape2D" id=2]
radius = 135.0
height = 166.0

[node name="krampus" type="Area2D"]
pause_mode = 1
script = ExtResource( 18 )
global_id = "krampus"
is_movable = true
default_action = "talk"
combine_when_selected_action_is_in = [  ]
inventory_texture = ExtResource( 93 )
dialog_color = Color( 1, 1, 1, 1 )
animations = SubResource( 35 )

[node name="dialog_position" type="Position2D" parent="."]
position = Vector2( 0, -550 )
script = ExtResource( 19 )

[node name="AnimatedSprite" type="AnimatedSprite" parent="."]
frames = SubResource( 1 )
animation = "idle_s"
offset = Vector2( 0, -210 )

[node name="CollisionShape2D" type="CollisionShape2D" parent="."]
position = Vector2( 0, -187 )
shape = SubResource( 2 )

[node name="Sprite" type="Sprite" parent="."]
visible = false
texture = ExtResource( 93 )
